D:\Eclipse_Workspace\RediffRegression\src\main\java\com\rediff\Pages\LoginPage.java
D:\Eclipse_Workspace\RediffRegression\src\main\java\com\rediff\Pages\RegistrationPage.java
D:\Eclipse_Workspace\RediffRegression\src\main\java\com\rediff\TestRunner\Runner.java
D:\Eclipse_Workspace\RediffRegression\src\main\java\com\rediff\Util\SeleniumUtil.java
D:\Eclipse_Workspace\RediffRegression\src\main\java\com\rediff\Help\DriverFactory.java
